<?xml version="1.0" encoding="UTF-8"?>
<svg id="a" data-name="レイヤー 1" xmlns="http://www.w3.org/2000/svg" width="23.81" height="13.32" viewBox="0 0 23.81 13.32">
  <defs>
    <style>
      .b {
        fill: none;
        stroke: #222;
        stroke-miterlimit: 10;
        stroke-width: 2px;
      }
    </style>
  </defs>
  <polyline class="b" points="23.1 .71 11.9 11.9 .71 .71"/>
</svg>