<svg xmlns="http://www.w3.org/2000/svg" width="101.34" height="100" viewBox="0 0 101.34 100">
  <defs>
    <style>
      .a {
        fill: none;
      }

      .b {
        fill: #4c4c4c;
      }
    </style>
  </defs>
  <rect class="a" width="101.34" height="100"/>
  <path class="b" d="M526.11,381.58a19.83,19.83,0,0,1,7.45,1.25A10.67,10.67,0,0,1,540.31,393a10.84,10.84,0,0,1-4.48,9.12c1.78,1.14,5.72,3.73,5.72,10.53,0,12.37-12,12.37-15.88,12.37H510.39V381.58ZM519.52,390v8.81h6.64c4.16,0,5-3.08,5-4.43,0-1.57-.75-4.38-5.45-4.38Zm0,16.31v10.37h6.64c1.41,0,6.26,0,6.26-5.13,0-3.83-2.86-5.24-5.72-5.24Z" transform="translate(-474.33 -353)"/>
</svg>
