<svg xmlns="http://www.w3.org/2000/svg" width="101.34" height="100" viewBox="0 0 101.34 100">
  <defs>
    <style>
      .a {
        fill: none;
      }

      .b {
        fill: #4c4c4c;
      }
    </style>
  </defs>
  <rect class="a" width="101.34" height="100"/>
  <path class="b" d="M529.72,421.5v9c0,5.24-3,7-9.45,7.13v-4.37c3.41-.06,4.11-.87,4.22-2.65h-4.22V421.5Z" transform="translate(-474.33 -353)"/>
  <path class="b" d="M538.17,392.38l-2.1,3.94-24.28-13,24.28-13,2.1,4-17.3,9Z" transform="translate(-474.33 -353)"/>
</svg>
