<svg xmlns="http://www.w3.org/2000/svg" width="101.34" height="100" viewBox="0 0 101.34 100">
  <defs>
    <style>
      .a {
        fill: none;
      }

      .b {
        fill: #4c4c4c;
      }
    </style>
  </defs>
  <rect class="a" width="101.34" height="100"/>
  <path class="b" d="M536.54,428.52c0,6.08-5.22,10.1-11.54,10.1s-11.54-4-11.54-10.1a9.18,9.18,0,0,1,4.44-8,7.73,7.73,0,0,1-2.81-6c0-4.75,3.9-8.5,9.91-8.5s9.91,3.71,9.91,8.5a7.73,7.73,0,0,1-2.81,6A9.18,9.18,0,0,1,536.54,428.52Zm-6.63-.2c0-2.14-1.71-4.21-4.91-4.21s-5,2-5,4.21c0,2.46,2.18,4.25,5,4.25S529.91,430.86,529.91,428.32Zm-1.24-13.61a3.38,3.38,0,0,0-3.67-3.32c-2,0-3.67,1.17-3.67,3.32a3.69,3.69,0,0,0,7.34,0Z" transform="translate(-474.33 -351.99)"/>
  <path class="b" d="M531,365.66a25,25,0,0,0-5.75,15.94A24.44,24.44,0,0,0,531,397.55h-4.39a25,25,0,0,1-5.91-15.95,25.32,25.32,0,0,1,5.91-15.94Z" transform="translate(-474.33 -351.99)"/>
</svg>
