<svg xmlns="http://www.w3.org/2000/svg" width="101.34" height="100" viewBox="0 0 101.34 100">
  <defs>
    <style>
      .a {
        fill: none;
      }

      .b {
        fill: #4c4c4c;
      }
    </style>
  </defs>
  <rect class="a" width="101.34" height="100"/>
  <path class="b" d="M523.44,406.63h5.85V438H522.7V413.7l-5.54,3.86-.82-6.09Z" transform="translate(-474.33 -351.99)"/>
  <path class="b" d="M528,365.66,527.33,385h-4.66L522,365.66Zm-5.91,21.82h5.71V393h-5.71Z" transform="translate(-474.33 -351.99)"/>
</svg>
