<svg xmlns="http://www.w3.org/2000/svg" width="101.34" height="100" viewBox="0 0 101.34 100">
  <defs>
    <style>
      .a {
        fill: none;
      }

      .b {
        fill: #4c4c4c;
      }
    </style>
  </defs>
  <rect class="a" width="101.34" height="100"/>
  <path class="b" d="M529.72,421.5V431h-9.45v-9.5Z" transform="translate(-474.33 -353)"/>
  <path class="b" d="M529.13,383.33l-17.3-9,2.1-4,24.28,13-24.28,13-2.1-3.94Z" transform="translate(-474.33 -353)"/>
</svg>
