<svg xmlns="http://www.w3.org/2000/svg" width="101.34" height="100" viewBox="0 0 101.34 100">
  <defs>
    <style>
      .a {
        fill: none;
      }

      .b {
        fill: #4c4c4c;
      }
    </style>
  </defs>
  <rect class="a" width="101.34" height="100"/>
  <path class="b" d="M513.5,381.58,525,416l11.5-34.46h10L530.89,425H519.11l-15.66-43.42Z" transform="translate(-474.33 -353)"/>
</svg>
