<svg xmlns="http://www.w3.org/2000/svg" width="18" height="18" viewBox="0 0 18 18">
  <defs>
    <style>
      .a {
        fill: #19a5ed;
      }
    </style>
  </defs>
  <path class="a" d="M9,0a9,9,0,1,0,9,9A9,9,0,0,0,9,0ZM6.09,13.43V4.57L13.91,9Z"/>
</svg>
