<svg xmlns="http://www.w3.org/2000/svg" width="20.62" height="19.06" viewBox="0 0 20.62 19.06">
  <defs>
    <style>
      .a {
        fill: #fff;
      }
    </style>
  </defs>
  <path class="a" d="M535.31,412.53v-7.89c0-6.14-4.64-11.17-10.31-11.17s-10.31,5-10.31,11.17v7.89Z" transform="translate(-514.69 -393.47)"/>
</svg>
