<?xml version="1.0" encoding="UTF-8"?>
<svg id="a" data-name="レイヤー 1" xmlns="http://www.w3.org/2000/svg" width="48.65" height="163.76" viewBox="0 0 48.65 163.76">
  <defs>
    <style>
      .b {
        fill: #fff;
      }
    </style>
  </defs>
  <path class="b" d="M0,24.33c0,13.44,10.89,24.33,24.33,24.33,13.44,0,24.33-10.89,24.33-24.33C48.65,10.89,37.76,0,24.33,0,10.89,0,0,10.89,0,24.33Zm13.75-1.75l15.55-8.36c1.79-.96,3.25-.09,3.25,1.94v16.33c0,2.03-1.46,2.9-3.25,1.94l-15.55-8.36c-1.79-.96-1.79-2.53,0-3.49Z"/>
  <g>
    <path class="b" d="M34.1,61.49v2.31H14.54v-2.31h4.6c-.39-.74-1.01-1.66-1.62-2.38l2.44-.84c.78,.82,1.64,1.99,2.01,2.81l-1.19,.41h6.01c.65-.99,1.34-2.27,1.77-3.26l2.79,.82c-.52,.84-1.1,1.69-1.64,2.44h4.39Zm-9.83,14.43c0,1.1-.22,1.71-.95,2.07-.69,.37-1.69,.41-3,.41-.13-.65-.5-1.6-.82-2.18,.8,.04,1.66,.04,1.95,.02,.26,0,.35-.09,.35-.35v-1.92h-3.61v4.36h-2.44v-13.05h8.53v10.63Zm-6.09-8.47v1.34h3.61v-1.34h-3.61Zm3.61,4.65v-1.4h-3.61v1.4h3.61Zm6.7,2.23h-2.35v-8.82h2.35v8.82Zm1.95-9.42h2.53v10.74c0,1.28-.24,1.9-1.1,2.31-.82,.39-1.99,.45-3.54,.43-.13-.69-.54-1.75-.93-2.42,1.1,.04,2.23,.04,2.59,.02,.35,0,.45-.09,.45-.39v-10.7Z"/>
    <path class="b" d="M23.86,96.39c.82-.09,1.38-.22,1.97-.32,2.66-.65,4.75-2.55,4.75-5.6s-1.58-5.06-4.39-5.53c-.28,1.77-.65,3.72-1.25,5.66-1.25,4.24-3.05,6.83-5.34,6.83s-4.28-2.57-4.28-6.12c0-4.82,4.21-8.94,9.66-8.94,5.16,0,8.45,3.61,8.45,8.17s-2.7,7.54-7.99,8.34l-1.58-2.48Zm-1.62-6.33c.48-1.53,.86-3.33,1.12-5.08-3.46,.73-5.32,3.78-5.32,6.07,0,2.12,.84,3.13,1.64,3.13,.86,0,1.68-1.3,2.55-4.13Z"/>
    <path class="b" d="M29.08,120.11c.02-.32,.02-.71,.02-1.1h-9.68c-.82,0-2.01,.04-2.72,.13v-3.05c.71,.06,1.69,.13,2.64,.13h9.79v-8.77h-9.53c-.91,0-2.03,.04-2.64,.09v-2.96c.8,.09,1.9,.15,2.61,.15h10.7c.63,0,1.49-.04,1.84-.07-.02,.5-.07,1.32-.07,1.97v10.98c0,.74,.07,1.86,.11,2.51h-3.07Z"/>
    <path class="b" d="M22.34,141.5c.17-1.32,.17-2.94,.17-3.78,0-1.45,.02-8.58,.02-10.42,0-.73,0-2.01-.19-2.96h3.46c-.17,.95-.17,2.2-.17,2.96,0,1.84-.02,8.97-.02,10.42,0,.63,0,2.46,.17,3.78h-3.44Z"/>
    <path class="b" d="M31.4,148.47c-.15,.24-.54,.86-.73,1.32-.71,1.64-1.9,3.89-3.33,5.81,2.12,1.82,4.67,4.54,5.9,6.07l-2.4,2.1c-1.36-1.92-3.33-4.08-5.34-5.98-2.25,2.36-5.06,4.56-7.97,5.92l-2.18-2.27c3.44-1.27,6.68-3.85,8.69-6.07,1.4-1.6,2.68-3.7,3.18-5.21h-7.19c-.89,0-2.05,.13-2.51,.15v-3.03c.58,.09,1.88,.15,2.51,.15h7.45c.93,0,1.77-.11,2.2-.24l1.73,1.27Z"/>
  </g>
</svg>