<?xml version="1.0" encoding="UTF-8"?>
<svg id="a" data-name="レイヤー 1" xmlns="http://www.w3.org/2000/svg" viewBox="0 0 105.74 80">
  <defs>
    <style>
      .b {
        fill: none;
      }

      .b, .c {
        stroke-width: 0px;
      }

      .c {
        fill: #d1eafa;
      }
    </style>
  </defs>
  <path class="c" d="m11.23,22.42c-6.2,0-11.23,5.01-11.23,11.2v12.76c0,6.18,5.03,11.2,11.23,11.2h12.32l38.56,22.42V0L23.55,22.42h-12.32Z"/>
  <rect class="b" x="0" width="105.74" height="80"/>
  <path class="c" d="m93.25,40l10.82-10.82c1.76-1.76,1.76-4.61,0-6.36-1.76-1.76-4.61-1.76-6.36,0l-10.82,10.82-10.82-10.82c-1.76-1.76-4.61-1.76-6.36,0-1.76,1.76-1.76,4.61,0,6.36l10.82,10.82-10.82,10.82c-1.76,1.76-1.76,4.61,0,6.36.88.88,2.03,1.32,3.18,1.32s2.3-.44,3.18-1.32l10.82-10.82,10.82,10.82c.88.88,2.03,1.32,3.18,1.32s2.3-.44,3.18-1.32c1.76-1.76,1.76-4.61,0-6.36l-10.82-10.82Z"/>
</svg>